{
  "project_info": {
    "project_number": "269871012540",
    "firebase_url": "https://carpool-57477.firebaseio.com",
    "project_id": "carpool-57477",
    "storage_bucket": "carpool-57477.appspot.com"
  },
  "client": [
    {
      "client_info": {
        "mobilesdk_app_id": "1:269871012540:android:4b37a75b135195ba",
        "android_client_info": {
          "package_name": "be.craftworkz.cronoscarpool"
        }
      },
      "oauth_client": [
        {
          "client_id": "269871012540-rlfkmstinuh40dac0ci1b2fhkhehft82.apps.googleusercontent.com",
          "client_type": 3
        }
      ],
      "api_key": [
        {
          "current_key": "AIzaSyCOU6LcyoxunGTdsVuHeruhsEzK2kXMl88"
        }
      ],
      "services": {
        "appinvite_service": {
          "other_platform_oauth_client": [
            {
              "client_id": "269871012540-rlfkmstinuh40dac0ci1b2fhkhehft82.apps.googleusercontent.com",
              "client_type": 3
            }
          ]
        }
      }
    }
  ],
  "configuration_version": "1"
}