{
  "name": "Notification",
  "plural": "notifications",
  "base": "PersistedModel",
  "idInjection": true,
  "options": {
    "validateUpsert": true
  },
  "properties": {
    "id": {
      "type": "string"
    },
    "title": {
      "type": "string",
      "required": true
    },
    "body": {
      "type": "string",
      "required": true
    },
    "data": {
      "type": "object"
    },
    "sendDate": {
      "type": "date"
    }
  },
  "validations": [],
  "relations": {},
  "acls": [
    {
      "accessType": "*",
      "principalType": "ROLE",
      "principalId": "$owner",
      "permission": "ALLOW",
      "property": "find"
    },
    {
      "accessType": "*",
      "principalType": "ROLE",
      "principalId": "$owner",
      "permission": "ALLOW",
      "property": "findById"
    },
    {
      "accessType": "*",
      "principalType": "ROLE",
      "principalId": "$owner",
      "permission": "ALLOW",
      "property": "destroyAll"
    }
  ],
  "methods": {}
}