{
  "db": {
    "name": "db",
    "connector": "memory"
  },
  "carpoolDb": {
    "port": 27017,
    "url": "mongodb+srv://craftworkz:craftworkz@cronoscarpool-ckthn.gcp.mongodb.net/Carpool?retryWrites=true&w=majority",
    "database": "Carpool",
    "name": "carpoolDb",
    "connector": "mongodb"
  },
  "transient": {
    "name": "transient",
    "connector": "transient"
  }
}
